kernel/sched.c: In function 'wake_up_new_task':
kernel/sched.c:2767: warning: unused variable 'cpu'
kernel/sched.c: In function 'update_sysctl':
kernel/sched.c:7316: warning: comparison of distinct pointer types lacks a cast
